Chapter 8 분석1: 감정어 빈도 | 사회과학도를 위한 텍스트마이닝
…
## Warning: 1 parsing failure.
##   row col  expected    actual                                         file
## 14851  -- 2 columns 1 columns 'data/KnuSentiLex-master/SentiWord_Dict.txt'

glimpse(senti_dic_df)

## Rows: 14,855
## Columns: 2
## $ X1 <chr> "(-;", "(;_;)", "(^^)", "(^-^)", "(^^*", "(^_^)", "(^_^;", "(^o^...
## $ X2 <dbl> 1, -1, 1, 1, 1, 1, -1, 1, -1, -1, -1, -1, 1, 1, 1, 1, 1, -1, 1, ...

senti_dic_df[1-5, ]

## # A tibble: 14,854 x 2
##    X1        X2
##    <chr>  <dbl>
##  1 (-;        1
##  2 (;_;)     -1
##  3 (^^)       1
##  4 (^^*       1
##  5 (^_^)      1
##  6 (^_^;     -1
##  7 (^o^)      1
##  8 (-_-)     -1
##  9 (T_T)     -1
## 10 (ㅡㅡ)    -1
## # ... with 14,844 more rows
…
## Rows: 14,855
## Columns: 2
## $ word   <chr> "(-;", "(;_;)", "(^^)", "(^-^)", "(^^*", "(^_^)", "(^_^;", "...
## $ sScore <dbl> 1, -1, 1, 1, 1, 1, -1, 1, -1, -1, -1, -1, 1, 1, 1, 1, 1, -1,...

이제 KNU한국어감성사전을 R환경에서 사용할 수 있다.

8.1.1.0.1 사전내용

KNU감성사전에 포함된 긍정단어와 부정단어를 살펴보자.

senti_dic_df %>% filter(sScore == 2) %>% arrange(word)

## # A tibble: 2,603 x 2
##    word              sScore
##    <chr>              <dbl>
##  1 가능성이 늘어나다      2
##  2 가능성이 있다고        2
##  3 가능하다               2
##  4 가볍고 상쾌하다        2
##  5 가볍고 상쾌한          2
##  6 가볍고 시원하게        2
##  7 가볍고 편안하게        2
##  8 가볍고 환하게          2
##  9 가운데에서 뛰어남      2
## 10 가장 거룩한            2
## # ... with 2,593 more rows

senti_dic_df %>% filter(sScore == -2) %>% arrange(word)

## # A tibble: 4,799 x 2
##    word            sScore
##    <chr>            <dbl>
##  1 가난                -2
##  2 가난뱅이            -2
##  3 가난살이            -2
##  4 가난살이하다        -2
##  5 가난설음            -2
##  6 가난에              -2
##  7 가난에 쪼들려서     -2
##  8 가난하게            -2
##  9 가난하고            -2
## 10 가난하고 어렵다     -2
## # ... with 4,789 more rows
…
## New names:
## * `하고,` -> `하고,...26`
## * 모든 -> 모든...27
## * 모든 -> 모든...41
## * `하고,` -> `하고,...47`
## * 자유와 -> 자유와...52
## * ...

## Joining, by = "word"

## # A tibble: 185 x 4
##    header word   pos   sScore
##    <chr>  <chr>  <chr>  <dbl>
##  1 조화를 조화   N          2
##  2 안전과 안전   N          2
##  3 행복을 행복   N          2
##  4 빛나는 빛     N          1
##  5 능력을 능력   N          1
##  6 향상을 향상   N          1
##  7 유구한 유구한 N          0
##  8 역사와 역사   N          0
##  9 역사와 와     J          0
## 10 전통에 전통   N          0
## # ... with 175 more rows
…
형태소를 분석한 결과를 통해 나타난 두 문서의 감정이 조금 더 긍정적으로 변했다. 형태소분석하면서 부정어휘로 구분됐던 단어들이 한글자로 분리돼 불용어로 제거된 결과다.

8.2.4 문서의 감정점수 계산

’권태’와 ’규원’의 감정점수를 비교해 어느 글이 더 부정적인지 살펴보자. 각 토큰에 감정점수 부여한다. 감정사전에 없는 단어를 남겨두기 위해 left_join()이용

sosul2_df %>% 
  unnest_tokens(word, main) %>% 
  left_join(knu_dic_df) %>% 
  mutate(sScore = ifelse(is.na(sScore), 0, sScore)) %>% 
  arrange(sScore)

## Joining, by = "word"

## # A tibble: 5,959 x 5
##    title author source word   sScore
##    <chr> <chr>  <chr>  <chr>   <dbl>
##  1 권태  이상   <NA>   위험한     -2
##  2 권태  이상   <NA>   아프게     -2
##  3 권태  이상   <NA>   어려운     -2
##  4 권태  이상   <NA>   밉다       -2
##  5 권태  이상   <NA>   거칠고     -2
##  6 권태  이상   <NA>   아니다     -2
##  7 권태  이상   <NA>   흉악한     -2
##  8 권태  이상   <NA>   아니다     -2
##  9 권태  이상   <NA>   위험한     -2
## 10 권태  이상   <NA>   겁쟁이     -2
## # ... with 5,949 more rows
…
knu_neg_df <- knu_dic_df %>% 
  filter(sScore < 0)
knu_neg_df$sScore %>% unique()

## [1] -1 -2

sosul2_df %>% 
  unnest_tokens(word, main) %>% 
  inner_join(knu_pos_df) %>% 
  count(author, word, sort = T)

## Joining, by = "word"

## # A tibble: 32 x 3
##    author word           n
##    <chr>  <chr>      <int>
##  1 이상   귀여운         3
##  2 이상   잘             3
##  3 나혜석 사랑으로       2
##  4 나혜석 잘             2
##  5 이상   좋다           2
##  6 나혜석 고쳐           1
##  7 나혜석 곱고           1
##  8 나혜석 기운차게       1
##  9 나혜석 또렷또렷한     1
## 10 나혜석 반가운         1
## # ... with 22 more rows

sosul2_df %>% 
  unnest_tokens(word, main) %>% 
  inner_join(knu_neg_df) %>% 
  count(author, word, sort = T)

## Joining, by = "word"

## # A tibble: 93 x 3
##    author word       n
##    <chr>  <chr>  <int>
##  1 이상   없다      30
##  2 나혜석 해        11
##  3 이상   권태       7
##  4 나혜석 못하고     5
##  5 이상   답답한     4
##  6 이상   모르는     4
##  7 이상   아니다     4
##  8 나혜석 눈물이     3
##  9 나혜석 모르는     3
## 10 나혜석 못하여     3
## # ... with 83 more rows
…
8.2.7 문장 전개에 따른 감정 변화

문장 단위로 토큰화하고, row_number()를 이용해 각 문장단위로 번호를 부여한다.

sosul2_df %>% 
  unnest_tokens(sentence, main, token = "sentences") %>% 
  mutate(linenumber = row_number()) %>% 
  unnest_tokens(word, sentence)

## # A tibble: 5,959 x 5
##    title author source linenumber word        
##    <chr> <chr>  <chr>       <int> <chr>       
##  1 권태  이상   <NA>            1 1           
##  2 권태  이상   <NA>            1 어서        
##  3 권태  이상   <NA>            1 차라리      
##  4 권태  이상   <NA>            1 어둬버리기나
##  5 권태  이상   <NA>            1 했으면      
##  6 권태  이상   <NA>            1 좋겠는데    
##  7 권태  이상   <NA>            1 벽촌의      
##  8 권태  이상   <NA>            1 여름날은    
##  9 권태  이상   <NA>            1 지리해서    
## 10 권태  이상   <NA>            1 죽겠을      
## # ... with 5,949 more rows

5수준인 감정사전의 감정점수를 긍정과 부정 등 2수준으로 축소하자.

sosul2_df %>% 
  unnest_tokens(sentence, main, token = "sentences") %>% 
  mutate(linenumber = row_number()) %>% 
  unnest_tokens(word, sentence) %>% 
  inner_join(knu_dic_df) %>% 
  mutate(emotion = ifelse(sScore > 0, "긍정", 
                          ifelse(sScore < 0, "부정", "중립")))

## Joining, by = "word"

## # A tibble: 224 x 7
##    title author source linenumber word   sScore emotion
##    <chr> <chr>  <chr>       <int> <chr>   <dbl> <chr>  
##  1 권태  이상   <NA>            7 바른        2 긍정   
##  2 권태  이상   <NA>           14 사랑        2 긍정   
##  3 권태  이상   <NA>           15 좋다        2 긍정   
##  4 권태  이상   <NA>           19 잘          1 긍정   
##  5 권태  이상   <NA>           24 없다       -1 부정   
##  6 권태  이상   <NA>           25 권태       -1 부정   
##  7 권태  이상   <NA>           26 싱거운     -1 부정   
##  8 권태  이상   <NA>           27 없다       -1 부정   
##  9 권태  이상   <NA>           29 위험한     -2 부정   
## 10 권태  이상   <NA>           31 아프게     -2 부정   
## # ... with 214 more rows
…
여러 행을 묶지 않고 지은이 별로 감정어의 빈도를 계산하면 334행에는 긍정단어 2개, 부정단어가 1개 있음을 알수 있다.

sosul2_df %>% 
  unnest_tokens(sentence, main, token = "sentences") %>% 
  mutate(linenumber = row_number()) %>% 
  unnest_tokens(word, sentence) %>% 
  inner_join(knu_dic_df) %>% 
  mutate(emotion = ifelse(sScore > 0, "긍정", 
                          ifelse(sScore < 0, "부정", "중립"))) %>% 
  count(author, index = linenumber, emotion)

## Joining, by = "word"

## # A tibble: 190 x 4
##    author index emotion     n
##    <chr>  <int> <chr>   <int>
##  1 나혜석   334 긍정        2
##  2 나혜석   334 부정        1
##  3 나혜석   335 부정        1
##  4 나혜석   336 부정        1
##  5 나혜석   336 중립        1
##  6 나혜석   338 긍정        1
##  7 나혜석   338 중립        1
##  8 나혜석   339 긍정        2
##  9 나혜석   339 부정        2
## 10 나혜석   340 부정        1
## # ... with 180 more rows

각 행을 10으로 정수나눗셈을 하면 10개 행씩 모두 같은 값으로 묶을 수 있다. 334행부터 339행인 33이 된다. 긍정단어와 부정단어도 각각 5개가 된다.

sosul2_df %>% 
  unnest_tokens(sentence, main, token = "sentences") %>% 
  mutate(linenumber = row_number()) %>% 
  unnest_tokens(word, sentence) %>% 
  inner_join(knu_dic_df) %>% 
  mutate(emotion = ifelse(sScore > 0, "긍정", 
                          ifelse(sScore < 0, "부정", "중립"))) %>% 
  count(author, index = linenumber %/% 10, emotion)

## Joining, by = "word"

## # A tibble: 89 x 4
##    author index emotion     n
##    <chr>  <dbl> <chr>   <int>
##  1 나혜석    33 긍정        5
##  2 나혜석    33 부정        5
##  3 나혜석    33 중립        2
##  4 나혜석    34 긍정        2
##  5 나혜석    34 부정        8
##  6 나혜석    35 긍정        1
##  7 나혜석    35 부정        4
##  8 나혜석    37 긍정        2
##  9 나혜석    37 부정        2
## 10 나혜석    37 중립        1
## # ... with 79 more rows
…
sosul2_emo_df <- sosul2_df %>% 
  unnest_tokens(sentence, main, token = "sentences") %>% 
  mutate(linenumber = row_number()) %>% 
  unnest_tokens(word, sentence) %>% 
  inner_join(knu_dic_df) %>% 
  mutate(emotion = ifelse(sScore > 0, "긍정", 
                          ifelse(sScore < 0, "부정", "중립"))) %>% 
  count(author, index = linenumber %/% 10, emotion) %>% 
  pivot_wider(names_from = emotion, values_from = n, values_fill = 0) %>%   mutate(sentiment = 긍정 - 부정) 

## Joining, by = "word"

sosul2_emo_df

## # A tibble: 59 x 6
##    author index  긍정  부정  중립 sentiment
##    <chr>  <dbl> <int> <int> <int>     <int>
##  1 나혜석    33     5     5     2         0
##  2 나혜석    34     2     8     0        -6
##  3 나혜석    35     1     4     0        -3
##  4 나혜석    37     2     2     1         0
##  5 나혜석    38     0     1     0        -1
##  6 나혜석    39     1     6     0        -5
##  7 나혜석    40     0     1     0        -1
##  8 나혜석    41     1     3     0        -2
##  9 나혜석    42     0     4     1        -4
## 10 나혜석    43     0     1     1        -1
## # ... with 49 more rows
…
