Chapter 10 분석3: 주제모형 | 사회과학도를 위한 텍스트마이닝
…
10.2.2.2 불용어 제거

’인공지능’으로 검색한 기사이므로, ’인공지능’관련 단어는 제거한다.
문자가 아닌 요소를 모두 제거한다. (숫자를 반드시 제거해야 하는 것은 아니다.)

ai_tk <- 
ai_tk %>% 
  filter(!word %in% c("인공지능", "AI", "ai", "인공지능AI", "인공지능ai")) %>% 
  filter(str_detect(word, "[:alpha:]+")) 

단어의 총빈도와 상대빈도를 살펴보자

ai_tk %>% count(word, sort = T)

## # A tibble: 21,260 x 2
##    word       n
##    <chr>  <int>
##  1 한      3107
##  2 하      1611
##  3 기술    1439
##  4 기업    1426
##  5 등      1373
##  6 해      1238
##  7 년      1232
##  8 것      1002
##  9 수       989
## 10 서비스   957
## # ... with 21,250 more rows

상대빈도가 높은 단어와 낮은 단어를 확인한다.

ai_tk %>% count(cat, word, sort = T) %>% 
  bind_log_odds(set = cat, feature = word, n = n) %>% 
  arrange(log_odds_weighted)

## # A tibble: 29,972 x 4
##    cat     word       n log_odds_weighted
##    <chr>   <chr>  <int>             <dbl>
##  1 IT_과학 반도체    30             -5.56
##  2 IT_과학 투자     193             -5.33
##  3 경제    전자     125             -5.31
##  4 IT_과학 펀드       9             -5.03
##  5 IT_과학 종목       4             -4.98
##  6 경제    교육      85             -4.85
##  7 IT_과학 금융     102             -4.69
##  8 IT_과학 채용       7             -4.05
##  9 IT_과학 교육     214             -3.79
## 10 IT_과학 대학      95             -3.63
## # ... with 29,962 more rows

ai_tk %>% count(cat, word, sort = T) %>% 
  bind_tf_idf(term = word, document = word, n = n) %>% 
  arrange(idf)

## # A tibble: 29,972 x 6
##    cat     word       n    tf   idf tf_idf
##    <chr>   <chr>  <int> <dbl> <dbl>  <dbl>
##  1 IT_과학 한      1623 0.522  8.87   4.63
##  2 경제    한      1109 0.357  8.87   3.16
##  3 IT_과학 기술     876 0.609  8.87   5.40
##  4 IT_과학 하       777 0.482  8.87   4.28
##  5 경제    기업     714 0.501  8.87   4.44
##  6 IT_과학 등       678 0.494  8.87   4.38
##  7 IT_과학 기업     651 0.457  8.87   4.05
##  8 IT_과학 전자     650 0.831  8.87   7.37
##  9 IT_과학 서비스   633 0.661  8.87   5.86
## 10 IT_과학 해       630 0.509  8.87   4.51
## # ... with 29,962 more rows
…
## [1] "이광석의 디지털 이후(25)시민 자율과 자치의 상상력을 발휘 폭주하는 과학기술 말머리를 돌려라 ㆍ기술 민주주의 얼마 전까지도 우리 사회 속 기술 수용은 그리 대중의 관심사가 아니었다 대중의 기술 체감도 크지 않았다 여전히 기술은 국가의 일이었다 정확히는 주로 재벌의 성장 지표에 관심이 많은 엘리트 관료들 소관이었다 하지만 10여년 전부터 스마트 기술이 일상으로 확산되면서 상황이 많이 바뀌었다 일반인이 느끼고 감지하는 기술 경험이 확"
## [2] "베컴이 9개 언어로 말한다고 딥페이크로 입모양 바꿔  AI의 역습 딥페이크   영국을 대표하는 축구선수였던 데이비드 베컴은 2020년 말라리아 머스트 다이(Malaria Must Die)라는 비영리기구가 만든 광고에 출연해 영어뿐만 아니라 스페인어 독일어 아랍어 등 9개국어로 말라리아에 대항해 같이 싸우자는 메시지를 전달했다 물론 베컴이 9개국어를 할 리가 없다 딥페이크로 입 모양을"                                                                  
## [3] "모두가 주목하는 대학 IT의 힘으로 AI의 미래로 숭실대학교 4차 산업혁명을 주도하는 글로벌 대학 한국 최초의 4년제 근대대학 숭실대학교는 4차 산업혁명 시대를 맞아 지난2017년 숭실 40을 선포 대한민국 최고의 AI 융합분야 인재 양성 대학으로 도약하기 위한 로드맵을 세웠다 개교 123주년을 맞아 AI비전을 선포한 숭실은 올해 5월 교육부가 주관하는 4차 산업혁명 혁신선도대학으로 선정되어 2년간"

‘기업’ ‘기술’ 등의 단어는 총사용빈도가 높지만, 상대빈도는 낮다. 대부분의 분류에서 널리 사용된 단어다. 지금 제거할필요는 없지만, 제거가능성을 염두에 둔다.

ai_tk %>% 
  filter(str_length(word) > 1) -> ai2_tk

ai2_tk %>% 
  count(word, sort = T) 

## # A tibble: 20,522 x 2
##    word       n
##    <chr>  <int>
##  1 기술    1439
##  2 기업    1426
##  3 서비스   957
##  4 개발     949
##  5 lg       796
##  6 전자     782
##  7 디지털   760
##  8 데이터   681
##  9 사업     680
## 10 투자     658
## # ... with 20,512 more rows

상대빈도를 다시 확인하자.

ai2_tk %>% count(cat, word, sort = T) %>% 
  bind_log_odds(set = cat, feature = word, n = n) %>% 
  arrange(-log_odds_weighted)

## # A tibble: 28,407 x 4
##    cat     word       n log_odds_weighted
##    <chr>   <chr>  <int>             <dbl>
##  1 IT_과학 lg       669             12.6 
##  2 사회    교육     286             11.2 
##  3 사회    대학     166              8.70
##  4 IT_과학 세탁     215              7.33
##  5 경제    은행     146              7.16
##  6 사회    학생      94              6.92
##  7 사회    수능      23              6.86
##  8 사회    환자      77              6.67
##  9 사회    진단      92              6.43
## 10 IT_과학 건조기   160              6.40
## # ... with 28,397 more rows

ai2_tk %>% count(cat, word, sort = T) %>% 
  bind_tf_idf(term = word, document = word, n = n) %>% 
  arrange(tf_idf)

## # A tibble: 28,407 x 6
##    cat   word         n      tf   idf tf_idf
##    <chr> <chr>    <int>   <dbl> <dbl>  <dbl>
##  1 사회  금융         2 0.005    8.83 0.0442
##  2 사회  펀드         1 0.00571  8.83 0.0505
##  3 사회  tv           1 0.00637  8.83 0.0562
##  4 사회  상품         1 0.00730  8.83 0.0645
##  5 사회  반도체       2 0.00738  8.83 0.0652
##  6 사회  클라우드     1 0.00769  8.83 0.0679
##  7 사회  투자자       1 0.00840  8.83 0.0742
##  8 사회  채용         1 0.00855  8.83 0.0755
##  9 사회  챗봇         1 0.00862  8.83 0.0761
## 10 사회  전자         7 0.00895  8.83 0.0790
## # ... with 28,397 more rows
…
td_gamma <- stm_fit %>% tidy(matrix = "gamma") 
td_gamma %>% glimpse()

## Rows: 21,948
## Columns: 3
## $ document <int> 1, 2, 3, 4, 5, 6, 7, 8, 9, 10, 11, 12, 13, 14, 15, 16, 17,...
## $ topic    <int> 1, 1, 1, 1, 1, 1, 1, 1, 1, 1, 1, 1, 1, 1, 1, 1, 1, 1, 1, 1...
## $ gamma    <dbl> 0.07534948, 0.10225496, 0.09729881, 0.05099715, 0.10879445...

td_gamma %>% 
  mutate(max = max(gamma),
         min = min(gamma),
         median = median(gamma))

## # A tibble: 21,948 x 6
##    document topic  gamma   max    min median
##       <int> <int>  <dbl> <dbl>  <dbl>  <dbl>
##  1        1     1 0.0753 0.784 0.0239  0.122
##  2        2     1 0.102  0.784 0.0239  0.122
##  3        3     1 0.0973 0.784 0.0239  0.122
##  4        4     1 0.0510 0.784 0.0239  0.122
##  5        5     1 0.109  0.784 0.0239  0.122
##  6        6     1 0.0975 0.784 0.0239  0.122
##  7        7     1 0.107  0.784 0.0239  0.122
##  8        8     1 0.206  0.784 0.0239  0.122
##  9        9     1 0.122  0.784 0.0239  0.122
## 10       10     1 0.166  0.784 0.0239  0.122
## # ... with 21,938 more rows
…
