Chapter 11 분석4: 주제모형(공변인) | 사회과학도를 위한 텍스트마이닝
…
"!@#$... 전각ㆍㅣ문자 %^&*()" %>% str_remove("\\w+")

## [1] "!@#$...  %^&*()"

fullchar_v <- "ㆍ|ㅣ|‘|’|“|”|○|●|◎|◇|◆|□|■|△|▲|▽|▼|〓|◁|◀|▷|▶|♤|♠|♡|♥|♧|♣|⊙|◈|▣"

vac_tk <- 
vac2_df %>% 
  mutate(키워드 = str_remove_all(키워드, "[^(\\w+|\\d+|,)]")) %>% 
  mutate(키워드 = str_remove_all(키워드, fullchar_v)) %>% 
  unnest_tokens(word, 키워드, token = "regex", pattern = ",") 

vac_tk %>% arrange(ID) %>% head(30)

## # A tibble: 30 x 9
##    일자   text                      언론사  cat   ID     week press catSoc word 
##    <chr>  <chr>                     <chr>   <chr> <fct> <dbl> <chr> <chr>  <chr>
##  1 20210~ 美 국채 금리 상승에 뉴욕 증시 소폭 하락 ~ 조선일보~ 경제  1        13 야당지~ 비사회면~ 국채 
##  2 20210~ 美 국채 금리 상승에 뉴욕 증시 소폭 하락 ~ 조선일보~ 경제  1        13 야당지~ 비사회면~ 금리 
##  3 20210~ 美 국채 금리 상승에 뉴욕 증시 소폭 하락 ~ 조선일보~ 경제  1        13 야당지~ 비사회면~ 상승 
##  4 20210~ 美 국채 금리 상승에 뉴욕 증시 소폭 하락 ~ 조선일보~ 경제  1        13 야당지~ 비사회면~ 출발 
##  5 20210~ 美 국채 금리 상승에 뉴욕 증시 소폭 하락 ~ 조선일보~ 경제  1        13 야당지~ 비사회면~ 뉴욕 
##  6 20210~ 美 국채 금리 상승에 뉴욕 증시 소폭 하락 ~ 조선일보~ 경제  1        13 야당지~ 비사회면~ 증시 
##  7 20210~ 美 국채 금리 상승에 뉴욕 증시 소폭 하락 ~ 조선일보~ 경제  1        13 야당지~ 비사회면~ 소폭 
##  8 20210~ 美 국채 금리 상승에 뉴욕 증시 소폭 하락 ~ 조선일보~ 경제  1        13 야당지~ 비사회면~ 하락 
##  9 20210~ 美 국채 금리 상승에 뉴욕 증시 소폭 하락 ~ 조선일보~ 경제  1        13 야당지~ 비사회면~ 정체중~
## 10 20210~ 美 국채 금리 상승에 뉴욕 증시 소폭 하락 ~ 조선일보~ 경제  1        13 야당지~ 비사회면~ 미국 
## # ... with 20 more rows

vac_tk %>% arrange(ID) %>% tail(30)

## # A tibble: 30 x 9
##    일자   text                       언론사 cat   ID     week press catSoc word 
##    <chr>  <chr>                      <chr>  <chr> <fct> <dbl> <chr> <chr>  <chr>
##  1 20210~ "\"당연한 게 당연하지 않은\" \"무기력\~ 경향신문~ 사회  14090     1 여당지~ 사회면 온라인~
##  2 20210~ "\"당연한 게 당연하지 않은\" \"무기력\~ 경향신문~ 사회  14090     1 여당지~ 사회면 자가 
##  3 20210~ "\"당연한 게 당연하지 않은\" \"무기력\~ 경향신문~ 사회  14090     1 여당지~ 사회면 진단 
##  4 20210~ "\"당연한 게 당연하지 않은\" \"무기력\~ 경향신문~ 사회  14090     1 여당지~ 사회면 제출 
##  5 20210~ "\"당연한 게 당연하지 않은\" \"무기력\~ 경향신문~ 사회  14090     1 여당지~ 사회면 선생님~
##  6 20210~ "\"당연한 게 당연하지 않은\" \"무기력\~ 경향신문~ 사회  14090     1 여당지~ 사회면 부재중~
##  7 20210~ "\"당연한 게 당연하지 않은\" \"무기력\~ 경향신문~ 사회  14090     1 여당지~ 사회면 전화 
##  8 20210~ "\"당연한 게 당연하지 않은\" \"무기력\~ 경향신문~ 사회  14090     1 여당지~ 사회면 10통 
##  9 20210~ "\"당연한 게 당연하지 않은\" \"무기력\~ 경향신문~ 사회  14090     1 여당지~ 사회면 가량 
## 10 20210~ "\"당연한 게 당연하지 않은\" \"무기력\~ 경향신문~ 사회  14090     1 여당지~ 사회면 성군 
## # ... with 20 more rows

11.2.3.2 불용어 처리

빅카인즈의 형태소분석 결과를 이용하므로 별도의 불용어처리는 불필요하나, 의미없는 고빈도 단어를 선별할 필요가 있다. 단어의 총빈도를 계산해본다. ’백신’과 ’코로나19’의 빈도가 높다. 어느 한 단어가 압도적인 비중을 차지하는 것이 아니므로 제거하지 않고 그대로 둔다. ’코로나’는 ’코로나19’라는 질병의 이름으로 사용됐을수 있고, ’코로나바이러스’라는 병인으로 사용됐을수도 있으므로, ’코로나19’와 병합하지 말고 그대로 둔다.

count_df <- 
vac_tk %>% count(word, sort = T)

count_df %>% head(40)

## # A tibble: 40 x 2
##    word         n
##    <chr>    <int>
##  1 백신     34189
##  2 코로나19 32204
##  3 접종     24660
##  4 정부     14813
##  5 미국     12322
##  6 코로나   12120
##  7 대통령   11818
##  8 확진자   11048
##  9 상황      8911
## 10 지원      8710
## # ... with 30 more rows

count_df %>% tail(40)

## # A tibble: 40 x 2
##    word               n
##    <chr>          <int>
##  1 히팅               1
##  2 힉스               1
##  3 힌덴버그리서치     1
##  4 힌두경전           1
##  5 힌두교식           1
##  6 힌두트바           1
##  7 힐다               1
##  8 힐러넷             1
##  9 힐리언스           1
## 10 힐링가드닝         1
## # ... with 30 more rows
…
주제별 상위 7개 단어목록을 데이터프레임에 저장한 다음, 이름 목록과 결합한다.

td_beta <- meta_fit %>% tidy(matrix = 'beta') 

term_topic_name <- 
td_beta %>% 
  group_by(topic) %>% 
  slice_max(beta, n = 7) %>% 
  left_join(topic_name, by = "topic")

term_topic_name

## # A tibble: 63 x 4
## # Groups:   topic [9]
##    topic term              beta name            
##    <int> <chr>            <dbl> <chr>           
##  1     1 백신           0.0842  1. 백신 접종자  
##  2     1 접종           0.0612  1. 백신 접종자  
##  3     1 코로나         0.0249  1. 백신 접종자  
##  4     1 아스트라제네카 0.0115  1. 백신 접종자  
##  5     1 바이러스       0.00924 1. 백신 접종자  
##  6     1 예방           0.00745 1. 백신 접종자  
##  7     1 영국           0.00676 1. 백신 접종자  
##  8     2 코로나         0.0183  2. 코로나 지원금
##  9     2 지원           0.0180  2. 코로나 지원금
## 10     2 지급           0.0141  2. 코로나 지원금
## # ... with 53 more rows
…
11.4.4 주제별 문서 분포도

문서별로 부여된 감마 값을 이용한 주제별로 문서의 분포도를 각 주제의 이름과 함께 시각화한다.

td_gamma <- meta_fit %>% tidy(matrix = 'gamma') 

doc_topic_name <- 
td_gamma %>% 
  group_by(topic) %>% 
  left_join(topic_name, by = "topic")

doc_topic_name

## # A tibble: 126,810 x 4
## # Groups:   topic [9]
##    document topic    gamma name          
##       <int> <int>    <dbl> <chr>         
##  1        1     1 0.00603  1. 백신 접종자
##  2        2     1 0.944    1. 백신 접종자
##  3        3     1 0.0589   1. 백신 접종자
##  4        4     1 0.361    1. 백신 접종자
##  5        5     1 0.000923 1. 백신 접종자
##  6        6     1 0.00141  1. 백신 접종자
##  7        7     1 0.992    1. 백신 접종자
##  8        8     1 0.00166  1. 백신 접종자
##  9        9     1 0.00302  1. 백신 접종자
## 10       10     1 0.00175  1. 백신 접종자
## # ... with 126,800 more rows
…
combined_df %>% 
  left_join(td_gamma, by = c("ID" = "document")) %>% 
  pivot_wider(
    names_from = topic,
    values_from = gamma,
    names_prefix = "tGamma",
    values_fill = 0
    ) %>% 

  arrange(-tGamma1) %>% 
  filter(str_detect(text, "백신")) %>% 
  mutate(text = str_replace_all(text, "백신", "**백신**")) %>% 
  head(30)

## # A tibble: 30 x 19
##       ID text2 일자  text  언론사 cat   키워드  week press catSoc tGamma1
##    <int> <chr> <chr> <chr> <chr>  <chr> <chr>  <dbl> <chr> <chr>    <dbl>
##  1  1847 770만~ 2021~ "770~ 조선일보~ 국제  770만,~    11 야당지~ 비사회면~   0.997
##  2  8183 62 아~ 2021~ "아스트~ 중앙일보~ 사회  62%,아~     5 야당지~ 사회면   0.997
##  3  6092 65세 ~ 2021~ "65세~ 조선일보~ 사회  65세,아~     7 야당지~ 사회면   0.997
##  4  3822 유럽 접~ 2021~ "유럽도~ 중앙일보~ 사회  유럽,접종~     9 야당지~ 사회면   0.996
##  5  7362 az 고~ 2021~ "AZ ~ 중앙일보~ 사회  AZ,고령~     6 야당지~ 사회면   0.996
##  6  1852 백신 혈~ 2021~ "**백~ 조선일보~ 국제  백신,혈전~    11 야당지~ 비사회면~   0.996
##  7  8139 62 아~ 2021~ "아스트~ 한겨레 사회  62%,아~     5 여당지~ 사회면   0.996
##  8  3283 백신 번~ 2021~ "화이자~ 중앙일보~ 사회  백신,번째~    10 야당지~ 사회면   0.996
##  9  4264 az 백~ 2021~ "AZ ~ 중앙일보~ 사회  AZ,백신~     9 야당지~ 사회면   0.996
## 10  6089 대상자 ~ 2021~ "대상자~ 조선일보~ 사회  대상자,접~     7 야당지~ 사회면   0.996
## # ... with 20 more rows, and 8 more variables: tGamma2 <dbl>, tGamma3 <dbl>,
## #   tGamma4 <dbl>, tGamma5 <dbl>, tGamma6 <dbl>, tGamma7 <dbl>, tGamma8 <dbl>,
## #   tGamma9 <dbl>
…
# 공변인 계수
coef_time <- 
prep %>% tidy() %>% 
  filter(str_detect(term, "^s"))
coef_time

## # A tibble: 54 x 6
##    topic term        estimate std.error statistic  p.value
##    <int> <chr>          <dbl>     <dbl>     <dbl>    <dbl>
##  1     1 s(week, 6)1 -0.00828    0.0178   -0.465  6.42e- 1
##  2     1 s(week, 6)2  0.00789    0.0179    0.442  6.58e- 1
##  3     1 s(week, 6)3  0.0224     0.0180    1.25   2.12e- 1
##  4     1 s(week, 6)4  0.134      0.0203    6.62   3.79e-11
##  5     1 s(week, 6)5  0.0838     0.0209    4.01   6.01e- 5
##  6     1 s(week, 6)6  0.0464     0.0148    3.13   1.72e- 3
##  7     2 s(week, 6)1  0.0289     0.0157    1.84   6.60e- 2
##  8     2 s(week, 6)2  0.0409     0.0150    2.73   6.32e- 3
##  9     2 s(week, 6)3  0.0291     0.0140    2.08   3.76e- 2
## 10     2 s(week, 6)4  0.00161    0.0162    0.0997 9.21e- 1
## # ... with 44 more rows
…
