Chapter 9 분석2: 상대빈도 | 사회과학도를 위한 텍스트마이닝
…
RcppMeCab패키지에서 pos()함수로 형태소를 추출한 뒤, 일반명사(‘nng’)만 추출해 빈도를 계산한다.

by1000_df %>% 
  unnest_tokens(word, document, token = pos) %>% 
  separate(word, c("word", "pos"), sep = "/") %>% 
  filter(pos == "nng") %>% 
  filter(word != "영화") %>% 
  count(word, sort = T)

## Warning: Expected 2 pieces. Additional pieces discarded in 9 rows [6974, 6975,
## 12084, 14122, 14126, 23822, 31071, 32929, 34114].

## # A tibble: 2,826 x 3
## # Groups:   label [2]
##    label word       n
##    <dbl> <chr>  <int>
##  1     1 최고      84
##  2     1 감동      58
##  3     1 연기      58
##  4     0 감독      46
##  5     0 스토리    46
##  6     0 시간      46
##  7     1 평점      46
##  8     1 생각      45
##  9     0 사람      43
## 10     0 평점      40
## # ... with 2,816 more rows
…
by1000_df %>% 
  unnest_tokens(word, document, token = pos) %>% 
  separate(word, c("word", "pos"), sep = "/") %>% 
  filter(pos == "nng") %>% 
  filter(word != "영화") %>% 
  count(word) %>% 
  pivot_wider(names_from = label,
              values_from = n, 
              values_fill = list(n = 0))

## Warning: Expected 2 pieces. Additional pieces discarded in 9 rows [6974, 6975,
## 12084, 14122, 14126, 23822, 31071, 32929, 34114].

## # A tibble: 2,299 x 3
##    word    `0`   `1`
##    <chr> <int> <int>
##  1 가가      1     0
##  2 가관      1     0
##  3 가능      1     4
##  4 가든      1     0
##  5 가리      1     0
##  6 가문      1     0
##  7 가미      1     0
##  8 가수      2     0
##  9 가슴      5    13
## 10 가식      1     0
## # ... with 2,289 more rows
…
## Warning: Expected 2 pieces. Additional pieces discarded in 9 rows [6974, 6975,
## 12084, 14122, 14126, 23822, 31071, 32929, 34114].

## # A tibble: 2,299 x 6
##    word   nega  posi odds_posi odds_nega posi_odds_ratio
##    <chr> <int> <int>     <dbl>     <dbl>           <dbl>
##  1 가가      1     0  0.000181  0.000334           0.542
##  2 가관      1     0  0.000181  0.000334           0.542
##  3 가능      1     4  0.000905  0.000334           2.71 
##  4 가든      1     0  0.000181  0.000334           0.542
##  5 가리      1     0  0.000181  0.000334           0.542
##  6 가문      1     0  0.000181  0.000334           0.542
##  7 가미      1     0  0.000181  0.000334           0.542
##  8 가수      2     0  0.000181  0.000501           0.361
##  9 가슴      5    13  0.00253   0.00100            2.53 
## 10 가식      1     0  0.000181  0.000334           0.542
## # ... with 2,289 more rows
…
’밋’과 ’ㄷ’이 사용된 문장을 살펴보자. drop =인자에 FALSE를 투입하면 토큰화한 문장을 제거하지 않고 남겨둔다.

by1000_df %>% 
  unnest_tokens(word, document, token = pos, drop = F) %>% 
  separate(word, c("word", "pos"), sep = "/") %>% 
  filter(pos == "nng") %>% 
  filter(word == "밋" | word == "ㄷ") 

## Warning: Expected 2 pieces. Additional pieces discarded in 9 rows [6974, 6975,
## 12084, 14122, 14126, 23822, 31071, 32929, 34114].

## # A tibble: 31 x 5
## # Groups:   label [1]
##         id document                                            label word  pos  
##      <dbl> <chr>                                               <dbl> <chr> <chr>
##  1 7558788 대박 재밋네요 쌤해밀턴 광고로 대박나길 넘 귀엽다 ㅋㅋㅋ쌤 화이팅~     1 밋    nng  
##  2 8456921 40년전 영화임 ㄷㄷㄷ                                    1 ㄷ    nng  
##  3 8456921 40년전 영화임 ㄷㄷㄷ                                    1 ㄷ    nng  
##  4 8456921 40년전 영화임 ㄷㄷㄷ                                    1 ㄷ    nng  
##  5 9589074 헐 촤화연 졸라 개이쁘네 ㅎㄷㄷ                          1 ㄷ    nng  
##  6 9589074 헐 촤화연 졸라 개이쁘네 ㅎㄷㄷ                          1 ㄷ    nng  
##  7 5181629 서기 넘 이쁘고 재밋음ㅋㅋㅋ                             1 밋    nng  
##  8 8938724 재밋었음10자는뭐여                                      1 밋    nng  
##  9 7159878 ㅎㄷㄷ 난십점 에헤 ~                                    1 ㄷ    nng  
## 10 7159878 ㅎㄷㄷ 난십점 에헤 ~                                    1 ㄷ    nng  
## # ... with 21 more rows
…
## Warning: Expected 2 pieces. Additional pieces discarded in 9 rows [6974, 6975,
## 12084, 14122, 14126, 23822, 31071, 32929, 34114].

## # A tibble: 2,299 x 6
##    word   nega  posi odds_posi odds_nega log_odds_ratio
##    <chr> <int> <int>     <dbl>     <dbl>          <dbl>
##  1 가가      1     0  0.000181  0.000334         -0.613
##  2 가관      1     0  0.000181  0.000334         -0.613
##  3 가능      1     4  0.000905  0.000334          0.997
##  4 가든      1     0  0.000181  0.000334         -0.613
##  5 가리      1     0  0.000181  0.000334         -0.613
##  6 가문      1     0  0.000181  0.000334         -0.613
##  7 가미      1     0  0.000181  0.000334         -0.613
##  8 가수      2     0  0.000181  0.000501         -1.02 
##  9 가슴      5    13  0.00253   0.00100           0.928
## 10 가식      1     0  0.000181  0.000334         -0.613
## # ... with 2,289 more rows
…
## Warning: Expected 2 pieces. Additional pieces discarded in 9 rows [6974, 6975,
## 12084, 14122, 14126, 23822, 31071, 32929, 34114].

rate_log_df  %>% 
  group_by(label  = ifelse(log_odds_ratio > 0, "긍정평", "부정평")) %>% 
  # 긍정평과 부정평별 각각 상위 10개 
  slice_max(abs(log_odds_ratio), n = 10) 

## # A tibble: 22 x 7
## # Groups:   label [2]
##    word   nega  posi odds_posi odds_nega log_odds_ratio label 
##    <chr> <int> <int>     <dbl>     <dbl>          <dbl> <chr> 
##  1 굿        0    19   0.00362  0.000167           3.08 긍정평
##  2 밋        0    16   0.00308  0.000167           2.91 긍정평
##  3 ㄷ        0    15   0.00290  0.000167           2.85 긍정평
##  4 삶        0    10   0.00199  0.000167           2.48 긍정평
##  5 마음      0     9   0.00181  0.000167           2.38 긍정평
##  6 최고      8    84   0.0154   0.00150            2.33 긍정평
##  7 명작      2    26   0.00489  0.000501           2.28 긍정평
##  8 만족      0     8   0.00163  0.000167           2.28 긍정평
##  9 감정      0     7   0.00145  0.000167           2.16 긍정평
## 10 행복      0     7   0.00145  0.000167           2.16 긍정평
## # ... with 12 more rows
…
## Warning: Expected 2 pieces. Additional pieces discarded in 9 rows [6974, 6975,
## 12084, 14122, 14126, 23822, 31071, 32929, 34114].

weighted_log_odds_df

## # A tibble: 2,826 x 4
## # Groups:   label [2]
##    label word      n log_odds_weighted
##    <dbl> <chr> <int>             <dbl>
##  1     1 굿       19              3.25
##  2     0 짜증     24              3.18
##  3     0 최악     24              3.18
##  4     1 최고     84              3.09
##  5     1 밋       16              2.98
##  6     1 ㄷ       15              2.88
##  7     0 돈       19              2.82
##  8     1 삶       10              2.35
##  9     1 감동     58              2.28
## 10     1 마음      9              2.23
## # ... with 2,816 more rows
…
## Warning: Expected 2 pieces. Additional pieces discarded in 9 rows [6974, 6975,
## 12084, 14122, 14126, 23822, 31071, 32929, 34114].

tf_idf_df

## # A tibble: 2,826 x 6
## # Groups:   label [2]
##    label word      n       tf   idf   tf_idf
##    <dbl> <chr> <int>    <dbl> <dbl>    <dbl>
##  1     0 가가      1 0.000271 0.693 0.000188
##  2     0 가관      1 0.000271 0.693 0.000188
##  3     0 가능      1 0.000271 0     0       
##  4     0 가든      1 0.000271 0.693 0.000188
##  5     0 가리      1 0.000271 0.693 0.000188
##  6     0 가문      1 0.000271 0.693 0.000188
##  7     0 가미      1 0.000271 0.693 0.000188
##  8     0 가수      2 0.000542 0.693 0.000376
##  9     0 가슴      5 0.00136  0     0       
## 10     0 가식      1 0.000271 0.693 0.000188
## # ... with 2,816 more rows

긍정평과 부정평별 상위 10개 추출한다.

tf_idf_df %>% 
  group_by(label = ifelse(label > 0, "긍정평", "부정평")) %>% 
  slice_max(tf_idf, n = 10) # 긍정평과 부정평별 각각 상위 10개 

## # A tibble: 22 x 6
## # Groups:   label [2]
##    label  word      n      tf   idf  tf_idf
##    <chr>  <chr> <int>   <dbl> <dbl>   <dbl>
##  1 긍정평 굿       19 0.00589 0.693 0.00408
##  2 긍정평 밋       16 0.00496 0.693 0.00344
##  3 긍정평 ㄷ       15 0.00465 0.693 0.00322
##  4 긍정평 삶       10 0.00310 0.693 0.00215
##  5 긍정평 마음      9 0.00279 0.693 0.00193
##  6 긍정평 만족      8 0.00248 0.693 0.00172
##  7 긍정평 감정      7 0.00217 0.693 0.00150
##  8 긍정평 행복      7 0.00217 0.693 0.00150
##  9 긍정평 뒤        6 0.00186 0.693 0.00129
## 10 긍정평 만점      6 0.00186 0.693 0.00129
## # ... with 12 more rows
…
먼저 drop_na()함수로 결측값을 제거하고, 토큰화한 다음, pos함수로 일반명사만 추출해, vac_tk로 저장한다.

vac_tk <- 
vac_df %>% 
  drop_na() %>% 
  unnest_tokens(word, 제목, token = pos) %>% 
  separate(word, c("word", "pos"), sep = "/") %>% 
  filter(pos == 'nng')

## Warning: Expected 2 pieces. Additional pieces discarded in 1 rows [2630].

vac_tk

## # A tibble: 3,570 x 5
##    언론사  본문                         URL                          word  pos  
##    <chr>   <chr>                        <chr>                        <chr> <chr>
##  1 경향신문~ "이틀간 2만322명에 접종 마쳐 중증 이상반응 ~ http://news.khan.co.kr/kh_n~ 백신  nng  
##  2 경향신문~ "이틀간 2만322명에 접종 마쳐 중증 이상반응 ~ http://news.khan.co.kr/kh_n~ 접종  nng  
##  3 경향신문~ "이틀간 2만322명에 접종 마쳐 중증 이상반응 ~ http://news.khan.co.kr/kh_n~ 탈    nng  
##  4 경향신문~ "이틀간 2만322명에 접종 마쳐 중증 이상반응 ~ http://news.khan.co.kr/kh_n~ 곳곳  nng  
##  5 경향신문~ "이틀간 2만322명에 접종 마쳐 중증 이상반응 ~ http://news.khan.co.kr/kh_n~ 방역  nng  
##  6 경향신문~ "이틀간 2만322명에 접종 마쳐 중증 이상반응 ~ http://news.khan.co.kr/kh_n~ 해이  nng  
##  7 경향신문~ "이틀간 2만322명에 접종 마쳐 중증 이상반응 ~ http://news.khan.co.kr/kh_n~ 찬물  nng  
##  8 경향신문~ "이틀간 2만322명에 접종 마쳐 중증 이상반응 ~ http://news.khan.co.kr/kh_n~ 우려  nng  
##  9 경향신문~ "의약품을 인체에 주입할 때 사용하는 의료기기가 ~ http://news.khan.co.kr/kh_n~ 여적  nng  
## 10 경향신문~ "의약품을 인체에 주입할 때 사용하는 의료기기가 ~ http://news.khan.co.kr/kh_n~ 주사기~ nng  
## # ... with 3,560 more rows
…
total_fq

## # A tibble: 32 x 3
## # Groups:   언론사 [4]
##    언론사   word      n
##    <chr>    <chr> <int>
##  1 경향신문 오늘     19
##  2 경향신문 카       14
##  3 경향신문 시작     13
##  4 경향신문 집단     13
##  5 경향신문 고령     10
##  6 경향신문 이상     10
##  7 경향신문 확진     10
##  8 문화일보 이상     10
##  9 문화일보 美        7
## 10 문화일보 시작      6
## # ... with 22 more rows
…
wlo_fq 

## # A tibble: 38 x 4
## # Groups:   언론사 [4]
##    언론사   word       n log_odds_weighted
##    <chr>    <chr>  <int>             <dbl>
##  1 경향신문 현장       5              2.74
##  2 경향신문 오늘      19              2.46
##  3 경향신문 국산       4              2.45
##  4 경향신문 발         3              2.12
##  5 경향신문 사회       3              2.12
##  6 경향신문 삶         3              2.12
##  7 경향신문 입소자     3              2.12
##  8 경향신문 자발       3              2.12
##  9 경향신문 행동       3              2.12
## 10 문화일보 美         7              3.63
## # ... with 28 more rows
…
