Chapter 4 틀잡기 | 사회과학도를 위한 텍스트마이닝
…
## # A tibble: 1 x 1
##   text                                                                          
##   <chr>                                                                         
## 1 "배우며 제때에 실행하면 진실로 즐겁지 않겠는가?\n            벗이 먼 곳에서부터 온다면 참으로 즐겁지 않겠는가?\n      ~

이제 생성된 데이터프레임을 tidytext패키지의 unnest_tokens함수를 이용해 정돈텍스트 구조로 바꿔보자. (철자에 주의. 복수 s)

앞서 만든 데이터프레임의 열 이름(“text”)을 input에 투입한 것을 잘 기억하자.

library(tidytext)
text_df %>% unnest_tokens(output = word, input = text)

## # A tibble: 21 x 1
##    word      
##    <chr>     
##  1 배우며    
##  2 제때에    
##  3 실행하면  
##  4 진실로    
##  5 즐겁지    
##  6 않겠는가  
##  7 벗이      
##  8 먼        
##  9 곳에서부터
## 10 온다면    
## # ... with 11 more rows
…
(길은 뚫린 골목이라도 적당하오.)
13인의 아해가 도로로 질주하지 아니하여도 좋소."

# 자료준비
txt_df <- tibble(text = ogamdo_txt)

# 정제(토큰화) 및 분석
txt_tk <- txt_df %>% 
  unnest_tokens(output = word,
                input = text) %>% 
  count(word, sort = T)
txt_tk

## # A tibble: 45 x 2
##    word         n
##    <chr>    <int>
##  1 그리오      13
##  2 무섭다고    13
##  3 의          13
##  4 제          13
##  5 아해도      11
##  6 아해가       8
##  7 인의         7
##  8 좋소         5
##  9 13           4
## 10 그중에       4
## # ... with 35 more rows
…
