Chapter 6 정제1 | 텍스트마이닝
…
6.1.1 단어 토큰

unnest_tokens()함수의 토큰화 기본값은 “words”로서 단어 단위로 토큰화한다.

text_v <- "You still fascinate and inspire me.
You influence me for the better. 
You’re the object of my desire, the #1 Earthly reason for my existence."

tibble(text = text_v) %>% 
  unnest_tokens(output = word, input = text,
                token = "words")

## # A tibble: 25 x 1
##    word     
##    <chr>    
##  1 you      
##  2 still    
##  3 fascinate
##  4 and      
##  5 inspire  
##  6 me       
##  7 you      
##  8 influence
##  9 me       
## 10 for      
## # ... with 15 more rows

strip_punct =인자에 FALSE를 투입하면, 문장부호를 제거하지 않는다. 문장부호는 상황에 따라 텍스트의 의미를 파악하는 중요한 단서를 제공하는 경우 있기 때문에 텍스트분석 정제 과정에서 제거하지 맣아야 할 때도 있다.

tibble(text = text_v) %>% 
  unnest_tokens(output = word, input = text,
                token = "words",
                strip_punct = F)

## # A tibble: 30 x 1
##    word     
##    <chr>    
##  1 you      
##  2 still    
##  3 fascinate
##  4 and      
##  5 inspire  
##  6 me       
##  7 .        
##  8 you      
##  9 influence
## 10 me       
## # ... with 20 more rows

6.1.2 글자 토큰

token =인자에 “characters”를 투입하면 글자 단위로 토큰화한다.

tibble(text = text_v) %>% 
  unnest_tokens(output = word, input = text,
                token = "characters") %>% 
  count(word, sort = T)

## # A tibble: 21 x 2
##    word      n
##    <chr> <int>
##  1 e        20
##  2 t        10
##  3 o         8
##  4 r         8
##  5 i         7
##  6 n         7
##  7 s         6
##  8 y         6
##  9 a         5
## 10 f         5
## # ... with 11 more rows

6.1.3 복수의 글자

복수의 글자를 토큰의 단위로 할 때는 “character_shingles”을 token =인자에 투입한다. 기본값은 3글자.

tibble(text = text_v) %>% 
  unnest_tokens(output = word, input = text,
                token = "character_shingles", n = 4) %>% 
  count(word, sort = T)

## # A tibble: 104 x 2
##    word      n
##    <chr> <int>
##  1 ence      2
##  2 ethe      2
##  3 reth      2
##  4 1ear      1
##  5 andi      1
##  6 arth      1
##  7 asci      1
##  8 ason      1
##  9 atea      1
## 10 bett      1
## # ... with 94 more rows

6.1.4 복수의 단어(n-gram)

복수의 단어를 토콘 단위로 나눌 때는 token =인자에 “ngrams”인자를 투입한다. 기본값은3개이다.

tibble(text = text_v) %>% 
  unnest_tokens(output = word, input = text,
                token = "ngrams", n = 4) %>% 
  count(word, sort = T)

## # A tibble: 22 x 2
##    word                         n
##    <chr>                    <int>
##  1 1 earthly reason for         1
##  2 and inspire me you           1
##  3 better you’re the object     1
##  4 desire the 1 earthly         1
##  5 earthly reason for my        1
##  6 fascinate and inspire me     1
##  7 for the better you’re        1
##  8 influence me for the         1
##  9 inspire me you influence     1
## 10 me for the better            1
## # ... with 12 more rows
…
