Chapter 6 정제도구 | 사회과학도를 위한 텍스트마이닝
…
stop_words %>% summarise(wordN = n())

## # A tibble: 1 x 1
##   wordN
##   <int>
## 1  1149

stop_word 데이프레임에는 1149개의 행이 있다. 즉, 1149개의 단어가 있다.

count()와 summarise(n())의 차이를 비교해보자.

stop_words %>% count(word, sort = T)

## # A tibble: 728 x 2
##    word        n
##    <chr>   <int>
##  1 down        4
##  2 would       4
##  3 a           3
##  4 about       3
##  5 above       3
##  6 after       3
##  7 again       3
##  8 against     3
##  9 all         3
## 10 an          3
## # ... with 718 more rows

stop_words %>% 
  group_by(word) %>% 
  summarise(wordN = n()) %>% 
  arrange(desc(wordN))

## `summarise()` ungrouping output (override with `.groups` argument)

## # A tibble: 728 x 2
##    word    wordN
##    <chr>   <int>
##  1 down        4
##  2 would       4
##  3 a           3
##  4 about       3
##  5 above       3
##  6 after       3
##  7 again       3
##  8 against     3
##  9 all         3
## 10 an          3
## # ... with 718 more rows
…
“down”은 “onix”에 2건이 들어 있고, “would”는 “SMART”에 2건이 들어있다.

특정 열을 지정해 개수를 계산해보자. count()와 summarise()의 차이를 비교하자.

stop_words %>% count(word, sort = T)

## # A tibble: 728 x 2
##    word        n
##    <chr>   <int>
##  1 down        4
##  2 would       4
##  3 a           3
##  4 about       3
##  5 above       3
##  6 after       3
##  7 again       3
##  8 against     3
##  9 all         3
## 10 an          3
## # ... with 718 more rows

stop_words %>% 
  group_by(word) %>% 
  summarise(wordN = n()) %>% 
  arrange(desc(wordN))

## `summarise()` ungrouping output (override with `.groups` argument)

## # A tibble: 728 x 2
##    word    wordN
##    <chr>   <int>
##  1 down        4
##  2 would       4
##  3 a           3
##  4 about       3
##  5 above       3
##  6 after       3
##  7 again       3
##  8 against     3
##  9 all         3
## 10 an          3
## # ... with 718 more rows
…
slice_min()

slice_max()

slice_sample()

6.2.5.1 filter(df, ...)

데이터프레임을 입력값으로 받아, 논리값(TRUE FALSE)을 이용해 데이터프레임의 행을 부분선택한다.

stop_words에서 lexicon열의 “onix” 또는 “snowball”에 해당하는 행의 단어만 부분 선택하자.

stop_words %>% filter(lexicon == "onix")

## # A tibble: 404 x 2
##    word    lexicon
##    <chr>   <chr>  
##  1 a       onix   
##  2 about   onix   
##  3 above   onix   
##  4 across  onix   
##  5 after   onix   
##  6 again   onix   
##  7 against onix   
##  8 all     onix   
##  9 almost  onix   
## 10 alone   onix   
## # ... with 394 more rows

stop_words %>% filter(word == "y")

## # A tibble: 1 x 2
##   word  lexicon
##   <chr> <chr>  
## 1 y     SMART

stop_words %>% filter(word == "y" | lexicon == "onix")

## # A tibble: 405 x 2
##    word    lexicon
##    <chr>   <chr>  
##  1 y       SMART  
##  2 a       onix   
##  3 about   onix   
##  4 above   onix   
##  5 across  onix   
##  6 after   onix   
##  7 again   onix   
##  8 against onix   
##  9 all     onix   
## 10 almost  onix   
## # ... with 395 more rows

stop_words %>% filter(word == "y" & lexicon == "onix")

## # A tibble: 0 x 2
## # ... with 2 variables: word <chr>, lexicon <chr>

str_detect()함수와 함께 사용하면 정규표현식을 이용할 수 있다. “you”로 시작하는 값이 포함된 행과 반대로 이들 행만 제외한 행을 각각 선택해 보자. ^는 정규표현식에서 “요소의 시작”을 의미한다.

stop_words %>% filter(str_detect(word, "^you"))

## # A tibble: 24 x 2
##    word       lexicon 
##    <chr>      <chr>   
##  1 you        SMART   
##  2 you'd      SMART   
##  3 you'll     SMART   
##  4 you're     SMART   
##  5 you've     SMART   
##  6 your       SMART   
##  7 yours      SMART   
##  8 yourself   SMART   
##  9 yourselves SMART   
## 10 you        snowball
## # ... with 14 more rows

stop_words %>% filter(!str_detect(word, "^you"))

## # A tibble: 1,125 x 2
##    word        lexicon
##    <chr>       <chr>  
##  1 a           SMART  
##  2 a's         SMART  
##  3 able        SMART  
##  4 about       SMART  
##  5 above       SMART  
##  6 according   SMART  
##  7 accordingly SMART  
##  8 across      SMART  
##  9 actually    SMART  
## 10 after       SMART  
## # ... with 1,115 more rows

6.2.5.2 distinct(df)

데이터프레임을 입력값으로 받아 고유한 행을 부분 선택한다. 중복된 행을 제거하는데 사용한다.

stop_words의 word열과 lexicon열에서 중복된 행을 제거하고 고유한 행만 부분선택하자.

stop_words %>% distinct(word)

## # A tibble: 728 x 1
##    word       
##    <chr>      
##  1 a          
##  2 a's        
##  3 able       
##  4 about      
##  5 above      
##  6 according  
##  7 accordingly
##  8 across     
##  9 actually   
## 10 after      
## # ... with 718 more rows
…
## # A tibble: 3 x 1
##   lexicon 
##   <chr>   
## 1 SMART   
## 2 snowball
## 3 onix

6.2.5.3 arrange(df, ..., .by_group = FALSE)

데이터프레임을 입력값으로 받아 선택한 열의 행을 순서대로 정렬한다. 기본값은 오름차 순서. 내림차로 정렬하려면 desc()를 인자로 추가한다.

stop_words %>% arrange(word)

## # A tibble: 1,149 x 2
##    word  lexicon 
##    <chr> <chr>   
##  1 a     SMART   
##  2 a     snowball
##  3 a     onix    
##  4 a's   SMART   
##  5 able  SMART   
##  6 about SMART   
##  7 about snowball
##  8 about onix    
##  9 above SMART   
## 10 above snowball
## # ... with 1,139 more rows

stop_words %>% arrange(desc(word))

## # A tibble: 1,149 x 2
##    word       lexicon 
##    <chr>      <chr>   
##  1 zero       SMART   
##  2 z          SMART   
##  3 yourselves SMART   
##  4 yourselves snowball
##  5 yourself   SMART   
##  6 yourself   snowball
##  7 yours      SMART   
##  8 yours      snowball
##  9 yours      onix    
## 10 your       SMART   
## # ... with 1,139 more rows
…
group_by()로 묶어 정렬하기 위해서는 기본값이 FALSE인 .by_group = 인자를 TRUE로 변경한다. by_group =이 아니라 .by_group =이다. (by 앞 .주의)

stop_words %>% arrange(word, .by_group = F)
stop_words %>% arrange(word, .by_group = T)
stop_words %>% group_by(lexicon) %>% arrange(word, .by_group = T)

6.2.5.4 add_row(df, ..., .before = NULL, .after = NULL)

tibble패키지의 함수로서 데이터프레임에 한개 이상의 행을 추가할 수 있다.
기본값은 끝부분 추가이다. 추가 위치를 지정하려면 .before = 혹은 .after = 인자에 추가할 위치를 지정한다.

stop_words %>% add_row(word = c("용어1", "용어2"), lexicon = "KOR", .before = 1)

## # A tibble: 1,151 x 2
##    word        lexicon
##    <chr>       <chr>  
##  1 용어1       KOR    
##  2 용어2       KOR    
##  3 a           SMART  
##  4 a's         SMART  
##  5 able        SMART  
##  6 about       SMART  
##  7 above       SMART  
##  8 according   SMART  
##  9 accordingly SMART  
## 10 across      SMART  
## # ... with 1,141 more rows

stop_words %>% add_row(word = c("용어1", "용어2"), lexicon = c("KOR1", "KOR2"), .before = 1)

## # A tibble: 1,151 x 2
##    word        lexicon
##    <chr>       <chr>  
##  1 용어1       KOR1   
##  2 용어2       KOR2   
##  3 a           SMART  
##  4 a's         SMART  
##  5 able        SMART  
##  6 about       SMART  
##  7 above       SMART  
##  8 according   SMART  
##  9 accordingly SMART  
## 10 across      SMART  
## # ... with 1,141 more rows

stop_words %>% add_row(word = "불용어", lexicon = "KOR", .before = 3)

## # A tibble: 1,150 x 2
##    word        lexicon
##    <chr>       <chr>  
##  1 a           SMART  
##  2 a's         SMART  
##  3 불용어      KOR    
##  4 able        SMART  
##  5 about       SMART  
##  6 above       SMART  
##  7 according   SMART  
##  8 accordingly SMART  
##  9 across      SMART  
## 10 actually    SMART  
## # ... with 1,140 more rows

stop_words %>% add_row(word = "불용어", lexicon = "KOR", .after = 3)

## # A tibble: 1,150 x 2
##    word        lexicon
##    <chr>       <chr>  
##  1 a           SMART  
##  2 a's         SMART  
##  3 able        SMART  
##  4 불용어      KOR    
##  5 about       SMART  
##  6 above       SMART  
##  7 according   SMART  
##  8 accordingly SMART  
##  9 across      SMART  
## 10 actually    SMART  
## # ... with 1,140 more rows
…
select() 데이터프레임의 열 부분선택

add_column() 데이터프레임에 하나 이상의 열 추가. (주의: column이 단수)

rename() 열의 이름 변경

mutate() 데이터프레임 기존 변수(열: column)들을 계산해 새로운 열 추가

6.2.6.1 select(df, ...)

데이터프레임을 받아 선택한 열을 부분선택한다.

stop_words %>% select(word)

## # A tibble: 1,149 x 1
##    word       
##    <chr>      
##  1 a          
##  2 a's        
##  3 able       
##  4 about      
##  5 above      
##  6 according  
##  7 accordingly
##  8 across     
##  9 actually   
## 10 after      
## # ... with 1,139 more rows
…
## # A tibble: 3 x 1
##   numbers
##     <int>
## 1       1
## 2       2
## 3       3

6.2.6.4 mutate(df, ... )

데이터프레임 기존 변수(열: column)들을 계산해 새로운 열 추가한다. 기존 열을 제거하려면 transmute() 이용.

stop_words %>% mutate(plus = str_c(word, "-", lexicon))

## # A tibble: 1,149 x 3
##    word        lexicon plus             
##    <chr>       <chr>   <chr>            
##  1 a           SMART   a-SMART          
##  2 a's         SMART   a's-SMART        
##  3 able        SMART   able-SMART       
##  4 about       SMART   about-SMART      
##  5 above       SMART   above-SMART      
##  6 according   SMART   according-SMART  
##  7 accordingly SMART   accordingly-SMART
##  8 across      SMART   across-SMART     
##  9 actually    SMART   actually-SMART   
## 10 after       SMART   after-SMART      
## # ... with 1,139 more rows

stop_words %>% transmute(plus = str_c(word, "-", lexicon))

## # A tibble: 1,149 x 1
##    plus             
##    <chr>            
##  1 a-SMART          
##  2 a's-SMART        
##  3 able-SMART       
##  4 about-SMART      
##  5 above-SMART      
##  6 according-SMART  
##  7 accordingly-SMART
##  8 across-SMART     
##  9 actually-SMART   
## 10 after-SMART      
## # ... with 1,139 more rows
…
textdata패키지를 설치한다. `get_sentments()함수를 이용해 3종(“afinn,” “bing,” “nrc”)의 영문 감정어의 구조를 파악하자. 처음 설치하고 실행한다면, 사전 다운로드를 할것인지 묻는다. “1: Yes”를 선택해 다운로드 받는다.

install.packages("textdata")

library(tidytext)
get_sentiments("afinn")

## # A tibble: 2,477 x 2
##    word       value
##    <chr>      <dbl>
##  1 abandon       -2
##  2 abandoned     -2
##  3 abandons      -2
##  4 abducted      -2
##  5 abduction     -2
##  6 abductions    -2
##  7 abhor         -3
##  8 abhorred      -3
##  9 abhorrent     -3
## 10 abhors        -3
## # ... with 2,467 more rows

get_sentiments("bing")

## # A tibble: 6,786 x 2
##    word        sentiment
##    <chr>       <chr>    
##  1 2-faces     negative 
##  2 abnormal    negative 
##  3 abolish     negative 
##  4 abominable  negative 
##  5 abominably  negative 
##  6 abominate   negative 
##  7 abomination negative 
##  8 abort       negative 
##  9 aborted     negative 
## 10 aborts      negative 
## # ... with 6,776 more rows

get_sentiments("nrc")

## # A tibble: 13,901 x 2
##    word        sentiment
##    <chr>       <chr>    
##  1 abacus      trust    
##  2 abandon     fear     
##  3 abandon     negative 
##  4 abandon     sadness  
##  5 abandoned   anger    
##  6 abandoned   fear     
##  7 abandoned   negative 
##  8 abandoned   sadness  
##  9 abandonment anger    
## 10 abandonment fear     
## # ... with 13,891 more rows
…
sonnet27_tk %>% inner_join(get_sentiments("nrc")) %>% arrange(desc(sentiment))

## Joining, by = "word"

## # A tibble: 29 x 2
##    word     sentiment
##    <chr>    <chr>    
##  1 intend   trust    
##  2 zealous  trust    
##  3 save     trust    
##  4 weary    sadness  
##  5 darkness sadness  
##  6 black    sadness  
##  7 dear     positive 
##  8 repose   positive 
##  9 journey  positive 
## 10 zealous  positive 
## # ... with 19 more rows
…
right_join

full_join

3종의 사전에 모두 포함된 감정단어를 추출해보자.

full_dic <- full_join(sonnet27_afinn, sonnet27_bing) %>% 
  full_join(sonnet27_nrc, by = "word", suffix = c("_bing", "_nrc"))

## Joining, by = "word"

full_dic

## # A tibble: 37 x 4
##    word     value sentiment_bing sentiment_nrc
##    <chr>    <dbl> <chr>          <chr>        
##  1 weary       -2 negative       negative     
##  2 weary       -2 negative       sadness      
##  3 dear         2 <NA>           positive     
##  4 tired       -2 negative       negative     
##  5 zealous      2 negative       joy          
##  6 zealous      2 negative       positive     
##  7 zealous      2 negative       trust        
##  8 darkness    -1 negative       anger        
##  9 darkness    -1 negative       fear         
## 10 darkness    -1 negative       negative     
## # ... with 27 more rows
…
bing과 nrc사전을 행방향으로 결합한 결과와 열방향으로 결합한 결과를 비교해보자.

library(tidyverse)
bind_rows(BING = sonnet27_bing, NRC = sonnet27_nrc, .id = "DIC")

## # A tibble: 43 x 3
##    DIC   word      sentiment
##    <chr> <chr>     <chr>    
##  1 BING  weary     negative 
##  2 BING  toil      negative 
##  3 BING  haste     negative 
##  4 BING  tired     negative 
##  5 BING  work      positive 
##  6 BING  expired   negative 
##  7 BING  zealous   negative 
##  8 BING  darkness  negative 
##  9 BING  blind     negative 
## 10 BING  imaginary negative 
## # ... with 33 more rows

full_join(sonnet27_bing, sonnet27_nrc, by = "word")

## # A tibble: 35 x 3
##    word    sentiment.x sentiment.y 
##    <chr>   <chr>       <chr>       
##  1 weary   negative    negative    
##  2 weary   negative    sadness     
##  3 toil    negative    <NA>        
##  4 haste   negative    anticipation
##  5 tired   negative    negative    
##  6 work    positive    <NA>        
##  7 expired negative    negative    
##  8 zealous negative    joy         
##  9 zealous negative    positive    
## 10 zealous negative    trust       
## # ... with 25 more rows
…
## # A tibble: 8 x 2
##   word      sentiment
##   <chr>     <chr>    
## 1 toil      negative 
## 2 haste     negative 
## 3 work      positive 
## 4 zealous   negative 
## 5 imaginary negative 
## 6 like      positive 
## 7 hung      negative 
## 8 beauteous positive

union(sonnet27_bing, sonnet27_nrc)

## # A tibble: 37 x 2
##    word      sentiment
##    <chr>     <chr>    
##  1 weary     negative 
##  2 toil      negative 
##  3 haste     negative 
##  4 tired     negative 
##  5 work      positive 
##  6 expired   negative 
##  7 zealous   negative 
##  8 darkness  negative 
##  9 blind     negative 
## 10 imaginary negative 
## # ... with 27 more rows
…
6.4.5 연습2

셰익스피어의 <소네트27>를 2그램으로 토큰화 해 불용어를 제거하시오. 2그램토큰의 불용어를 제거하기 위해서는 먼저 1그램으로 분리해 불용어를 제거한 다음, 다시 2그램으로 결합한다.

먼저, 2그램으로 토큰화한 후 s27_tk에 할당하자.

s27_tk <- tibble(text = sonnet27_v) %>% 
  unnest_tokens(word, text, token = "ngrams", n = 2)
s27_tk

## # A tibble: 110 x 1
##    word      
##    <chr>     
##  1 weary with
##  2 with toil 
##  3 toil i    
##  4 i haste   
##  5 haste me  
##  6 me to     
##  7 to my     
##  8 my bed    
##  9 bed the   
## 10 the dear  
## # ... with 100 more rows
…
tibble(text = text_v) %>% 
  unnest_tokens(output = word, input = text) %>% 
  filter(word %in% c("still", "and"))

## # A tibble: 2 x 1
##   word 
##   <chr>
## 1 still
## 2 and

tibble(text = text_v) %>% 
  unnest_tokens(output = word, input = text) %>% 
  filter(!word %in% c("still", "and"))

## # A tibble: 23 x 1
##    word     
##    <chr>    
##  1 you      
##  2 fascinate
##  3 inspire  
##  4 me       
##  5 you      
##  6 influence
##  7 me       
##  8 for      
##  9 the      
## 10 better   
## # ... with 13 more rows
…
