Chapter 7 정제(전처리) | R로 하는 텍스트마이닝
…
tidytext패키지에서는 unnest_tokens()함수에서는 token =인자로 토큰 단위를 지정할 수 있다.

7.1.1.0.1 단어

unnest_tokens()함수에서 토큰의 기본값으로 설정된 단위는 단어(“words”)다.

text_v <- "You still fascinate and inspire me.
You influence me for the better. 
You’re the object of my desire, the #1 Earthly reason for my existence."

tibble(text = text_v) %>% 
  unnest_tokens(output = word, input = text,
                token = "words")

## # A tibble: 25 x 1
##    word     
##    <chr>    
##  1 you      
##  2 still    
##  3 fascinate
##  4 and      
##  5 inspire  
##  6 me       
##  7 you      
##  8 influence
##  9 me       
## 10 for      
## # ... with 15 more rows

7.1.1.0.2 글자 토큰

token =인자에 “characters”를 투입하면 글자 단위로 토큰화한다.

tibble(text = text_v) %>% 
  unnest_tokens(output = word, input = text,
                token = "characters") %>% 
  count(word, sort = T)

## # A tibble: 21 x 2
##    word      n
##    <chr> <int>
##  1 e        20
##  2 t        10
##  3 o         8
##  4 r         8
##  5 i         7
##  6 n         7
##  7 s         6
##  8 y         6
##  9 a         5
## 10 f         5
## # ... with 11 more rows

7.1.1.0.3 복수의 글자

복수의 글자를 토큰의 단위로 할 때는 “character_shingles”을 token =인자에 투입한다. 기본값은 3글자.

tibble(text = text_v) %>% 
  unnest_tokens(output = word, input = text,
                token = "character_shingles", n = 4) %>% 
  count(word, sort = T)

## # A tibble: 104 x 2
##    word      n
##    <chr> <int>
##  1 ence      2
##  2 ethe      2
##  3 reth      2
##  4 1ear      1
##  5 andi      1
##  6 arth      1
##  7 asci      1
##  8 ason      1
##  9 atea      1
## 10 bett      1
## # ... with 94 more rows

7.1.1.0.4 복수의 단어(n-gram)

복수의 단어를 토콘 단위로 나눌 때는 token =인자에 “ngrams”인자를 투입한다. 기본값은3개이다.

tibble(text = text_v) %>% 
  unnest_tokens(output = word, input = text,
                token = "ngrams", n = 4) %>% 
  count(word, sort = T)

## # A tibble: 22 x 2
##    word                         n
##    <chr>                    <int>
##  1 1 earthly reason for         1
##  2 and inspire me you           1
##  3 better you’re the object     1
##  4 desire the 1 earthly         1
##  5 earthly reason for my        1
##  6 fascinate and inspire me     1
##  7 for the better you’re        1
##  8 influence me for the         1
##  9 inspire me you influence     1
## 10 me for the better            1
## # ... with 12 more rows
…
“html”문서를 토큰화해보자.

pp_html_df <- tibble(text = read_lines("https://www.gutenberg.org/files/1342/1342-h/1342-h.htm"))
pp_html_df[1:5,]
pp_html_df %>% unnest_tokens(word, text, format = "html") %>% .[1:5,]

7.1.3 to_lower = TRUE

영문은 대문자와 소문자 구분이 있다. to_lower =인자의 기본값은 TRUE다. FALSE를 로 지정하면 대문자를 모두 소문자로 변경하지 않는다. 영문문서에서 사람이름이나 지명을 구분해야 한다면 토큰화 과정에서 모든 단어를 소문자화하지 말아야 한다.

tibble(text = text_v) %>% 
  unnest_tokens(output = word, input = text,
                to_lower = FALSE)

## # A tibble: 25 x 1
##    word     
##    <chr>    
##  1 You      
##  2 still    
##  3 fascinate
##  4 and      
##  5 inspire  
##  6 me       
##  7 You      
##  8 influence
##  9 me       
## 10 for      
## # ... with 15 more rows

7.1.4 strip_punct =

추가인자는 tokenizers함수로 전달해 다양한 설정을 할 수 있다. 예를 들어, strip_punct =인자에 FALSE를 투입하면, 문장부호를 제거하지 않는다.

tibble(text = text_v) %>% 
  unnest_tokens(output = word, input = text,
                token = "words",
                strip_punct = FALSE)

## # A tibble: 30 x 1
##    word     
##    <chr>    
##  1 you      
##  2 still    
##  3 fascinate
##  4 and      
##  5 inspire  
##  6 me       
##  7 .        
##  8 you      
##  9 influence
## 10 me       
## # ... with 20 more rows
…
KoNLP의 extractNoun()함수 이용

ogamdo_txt %>% extractNoun() %>% tibble(text = .)

## # A tibble: 79 x 1
##    text 
##    <chr>
##  1 13   
##  2 인   
##  3 아해 
##  4 도로 
##  5 질주 
##  6 하오 
##  7 골목 
##  8 적당 
##  9 하오 
## 10 제1  
## # ... with 69 more rows
…
행(row) 하나에 토큰(token)이 하나만 할당 (one-token-per-row).

s27_v %>% SnowballC::wordStem()

## [1] "Weary with toil I haste me to my bed,\nThe dear repose for limbs with travel tired;\nBut then begins a journey in my head\nTo work my mind when body's work's expired;\nFor then my thoughts, from far where I abide,\nIntend a zealous pilgrimage to thee,\nAnd keep my drooping eyelids open wide\nLooking on darkness which the blind do see:\nSave that my soul's imaginary sight\nPresents thy shadow to my sightless view,\nWhich like a jewel hung in ghastly night\nMakes black night beauteous and her old face new.\nLo! thus by day my limbs, by night my mind,\nFor thee, and for myself, no quietness find."

토큰화를 먼저 한 다음에 어간을 추출한다.

s27_v %>% tibble(text = . ) %>% 
  unnest_tokens(word, text) %>% 
  mutate(stemmed = wordStem(word)) %>% 
  count(stemmed, sort = T)

## # A tibble: 81 x 2
##    stemmed     n
##    <chr>   <int>
##  1 my          9
##  2 for         4
##  3 to          4
##  4 a           3
##  5 and         3
##  6 night       3
##  7 by          2
##  8 i           2
##  9 in          2
## 10 limb        2
## # ... with 71 more rows
…
